spanish,english
el su\'{e}ter,sweater
el abrigo,coat
la camisa,t-shirt
la camiseta,shirt
los pantalones,trousers
los pantalones cortos,shorts
el cintur\'{o}n,belt
el calcet\'{i}n,sock
el traje,suit
la falda,skirt
el vestido,dress
el sombrero,hat
la bota,boot
el zapato,shoe
los bluyines,jeans
los jeans,jeans
la blusa,blouse
la bolsa,purse
la bufanda,scarf
la chaqueta,jacket
la corbata,tie
el gorro,cap
el guant,glove
el impermeable,raincoat
